%YAML 1.1
%TAG !u! tag:unity3d.com,2011:
--- !u!114 &11400000
MonoBehaviour:
  m_ObjectHideFlags: 0
  m_CorrespondingSourceObject: {fileID: 0}
  m_PrefabInstance: {fileID: 0}
  m_PrefabAsset: {fileID: 0}
  m_GameObject: {fileID: 0}
  m_Enabled: 1
  m_EditorHideFlags: 0
  m_Script: {fileID: 11500000, guid: 03455b26c944652469227fe34c32898d, type: 3}
  m_Name: Weapon
  m_EditorClassIdentifier: 
  itemSprite: {fileID: 21300000, guid: ea0a630149b839f418e65ab1662a5354, type: 3}
  constitution: {fileID: 11400000, guid: ae7fbfc39b7d2dd4490ef5080295b22a, type: 2}
  strenght: {fileID: 11400000, guid: ae7fbfc39b7d2dd4490ef5080295b22a, type: 2}
  dexterity: {fileID: 11400000, guid: ae7fbfc39b7d2dd4490ef5080295b22a, type: 2}
  reflex: {fileID: 11400000, guid: ae7fbfc39b7d2dd4490ef5080295b22a, type: 2}
  weaponType: 1
  damage: {fileID: 11400000, guid: ae7fbfc39b7d2dd4490ef5080295b22a, type: 2}
