%YAML 1.1
%TAG !u! tag:unity3d.com,2011:
--- !u!114 &11400000
MonoBehaviour:
  m_ObjectHideFlags: 0
  m_CorrespondingSourceObject: {fileID: 0}
  m_PrefabInstance: {fileID: 0}
  m_PrefabAsset: {fileID: 0}
  m_GameObject: {fileID: 0}
  m_Enabled: 1
  m_EditorHideFlags: 0
  m_Script: {fileID: 11500000, guid: 9db3f47050d4cfe4c8ddd4ad30837784, type: 3}
  m_Name: StartingChest
  m_EditorClassIdentifier: 
  itemSprite: {fileID: 21300000, guid: a2fa07ea59e20704e89888521b49cef4, type: 3}
  constitution: 0
  strenght: 0
  dexterity: 0
  reflex: 0
  armorType: 1
  armor: 0
