%YAML 1.1
%TAG !u! tag:unity3d.com,2011:
--- !u!114 &11400000
MonoBehaviour:
  m_ObjectHideFlags: 0
  m_CorrespondingSourceObject: {fileID: 0}
  m_PrefabInstance: {fileID: 0}
  m_PrefabAsset: {fileID: 0}
  m_GameObject: {fileID: 0}
  m_Enabled: 1
  m_EditorHideFlags: 0
  m_Script: {fileID: 11500000, guid: 03455b26c944652469227fe34c32898d, type: 3}
  m_Name: Hammer
  m_EditorClassIdentifier: 
  itemSprite: {fileID: 21300000, guid: 965db19d3d8b8cb459075785d6fc66cc, type: 3}
  constitution: 0
  strenght: 0
  dexterity: 0
  reflex: 0
  weaponType: 2
  damage: 0
